<svg width="24" height="24" viewBox="0 0 24 24" fill="none" xmlns="http://www.w3.org/2000/svg">
<path d="M21 13H13V21C13 21.55 12.55 22 12 22C11.45 22 11 21.55 11 21V13H3C2.45 13 2 12.55 2 12C2 11.45 2.45 11 3 11H11V3C11 2.45 11.45 2 12 2C12.55 2 13 2.45 13 3V11H21C21.55 11 22 11.45 22 12C22 12.55 21.55 13 21 13Z" fill="black" fill-opacity="0.7"/>
</svg>
