<svg width="24" height="24" viewBox="0 0 24 24" fill="none" xmlns="http://www.w3.org/2000/svg">
<path fill-rule="evenodd" clip-rule="evenodd" d="M2 2C1.44775 2 1 2.44769 1 3C1 3.55231 1.44775 4 2 4H4.26489L8.01465 16H8C6.34326 16 5 17.3431 5 19C5 20.6569 6.34326 22 8 22C9.64673 22 10.9836 20.673 10.9998 19.03C11.0002 19.0101 11.0002 18.9903 10.9998 18.9703C10.9966 18.6302 10.9368 18.3041 10.8293 18H16.1707C16.0601 18.3128 16 18.6494 16 19C16 20.6569 17.3433 22 19 22C20.6567 22 22 20.6569 22 19C22 17.3431 20.6567 16 19 16H10.1104L9.79785 15H19C19.4465 15 19.8389 14.704 19.9614 14.2747L21.9614 7.27472C22.0476 6.97302 21.9873 6.64832 21.7983 6.39783C21.6094 6.14728 21.3137 6 21 6H6.98511L5.95435 2.70172C5.82397 2.28424 5.43726 2 5 2H2ZM8.74316 18.3308L8.99194 19.1273C8.92944 19.6194 8.50903 20 8 20C7.44775 20 7 19.5523 7 19C7 18.4477 7.44775 18 8 18C8.29492 18 8.56006 18.1277 8.74316 18.3308ZM19 20C19.5522 20 20 19.5523 20 19C20 18.4477 19.5522 18 19 18C18.4478 18 18 18.4477 18 19C18 19.5523 18.4478 20 19 20Z" fill="black" fill-opacity="0.7"/>
</svg>
