<svg width="39" height="38" viewBox="0 0 39 38" fill="none" xmlns="http://www.w3.org/2000/svg">
<path fill-rule="evenodd" clip-rule="evenodd" d="M17.0562 10.0722C16.9402 10.0722 16.5921 10.1867 16.5921 10.1867C15.1998 10.6445 14.2715 11.9035 14.2715 13.506H14.5036C15.1998 13.506 15.5478 14.0782 15.5478 14.765C15.5478 15.3373 15.0837 15.9096 14.5036 16.024V24.4939C14.5036 25.0662 14.0395 25.524 13.4593 25.524C12.8792 25.524 12.4151 25.0662 12.4151 24.4939V17.1686H6.49756V18.9999C6.49756 25.9819 12.183 31.5903 19.2608 31.5903C26.3386 31.5903 32.024 25.9819 32.024 18.9999V17.1686H26.1065V24.4939C26.1065 25.0662 25.6424 25.524 25.1783 25.524C24.4821 25.6385 24.018 25.0662 24.018 24.4939V15.9096C23.4378 15.7951 22.9737 15.3373 22.9737 14.6505C22.9737 13.9638 23.4378 13.506 24.018 13.3915H24.25C24.25 11.9035 23.3218 10.5301 21.9295 10.0722C21.9295 10.0722 21.5814 9.95776 21.4653 9.95776C20.8852 9.95776 20.4211 10.4156 20.4211 10.9879V24.4939C20.4211 25.0662 19.957 25.524 19.3768 25.524C18.7967 25.524 18.3325 25.0662 18.3325 24.4939V11.1023C18.2165 10.5301 17.6364 10.0722 17.0562 10.0722Z" fill="white"/>
<path d="M19.2609 0.801205C29.4714 0.801205 37.7095 8.92771 37.7095 19C37.7095 29.0723 29.4714 37.1988 19.2609 37.1988C9.05028 37.1988 0.812205 29.0723 0.812205 19C0.812205 8.92771 9.05028 0.801205 19.2609 0.801205ZM19.2609 4.36622e-07C8.58617 4.36622e-07 -8.85233e-07 8.46988 -8.85233e-07 19C-8.85233e-07 29.5301 8.58617 38 19.2609 38C29.9355 38 38.5217 29.5301 38.5217 19C38.5217 8.46988 29.9355 4.36622e-07 19.2609 4.36622e-07Z" fill="white"/>
</svg>
